<?xml version="1.0" encoding="UTF-8" standalone="no"?>
<svg
   width="64px"
   height="64px"
   viewBox="0 0 24.00 24.00"
   version="1.1"
   fill="#000000"
   stroke="#000000"
   stroke-width="0"
   id="svg44"
   sodipodi:docname="angebot.svg"
   inkscape:version="1.1.2 (0a00cf5339, 2022-02-04, custom)"
   inkscape:export-filename="C:\Users\bened\Desktop\helium\lpclientpc\src\com\lp\client\res\svgs\angebot.png"
   inkscape:export-xdpi="24"
   inkscape:export-ydpi="24"
   xmlns:inkscape="http://www.inkscape.org/namespaces/inkscape"
   xmlns:sodipodi="http://sodipodi.sourceforge.net/DTD/sodipodi-0.dtd"
   xmlns="http://www.w3.org/2000/svg"
   xmlns:svg="http://www.w3.org/2000/svg">
  <defs
     id="defs48" />
  <sodipodi:namedview
     id="namedview46"
     pagecolor="#505050"
     bordercolor="#ffffff"
     borderopacity="1"
     inkscape:pageshadow="0"
     inkscape:pageopacity="0"
     inkscape:pagecheckerboard="1"
     showgrid="false"
     inkscape:zoom="6.4921875"
     inkscape:cx="37.044525"
     inkscape:cy="28.495788"
     inkscape:window-width="1920"
     inkscape:window-height="1017"
     inkscape:window-x="-1928"
     inkscape:window-y="-8"
     inkscape:window-maximized="1"
     inkscape:current-layer="g41" />
  <g
     id="SVGRepo_bgCarrier"
     stroke-width="0" />
  <g
     id="SVGRepo_iconCarrier">
    <g
       transform="translate(0 -1028.4)"
       id="g41">
      <g
         id="g857"
         transform="translate(-1.1390689,-1)">
        <path
           d="m 5,1030.4 c -1.1046,0 -2,0.9 -2,2 v 8 4 6 c 0,1.1 0.8954,2 2,2 h 14 c 1.105,0 2,-0.9 2,-2 v -6 -4 -4 -4 c 0,-1.1 -0.895,-2 -2,-2 h -4 z"
           fill="#bdc3c7"
           id="path3"
           style="fill:#ffeeaa" />
        <g
           fill="#cb1a1a"
           id="g15">
          <rect
             height="1"
             width="12"
             y="1043.4"
             x="6"
             id="rect7"
             style="fill:#808080" />
          <rect
             height="1"
             width="12"
             y="1040.4"
             x="6"
             id="rect9"
             style="fill:#808080" />
          <rect
             height="1"
             width="12"
             y="1037.4"
             x="6"
             id="rect11"
             style="fill:#808080" />
          <rect
             transform="translate(0,1028.4)"
             height="1"
             width="4"
             y="18"
             x="6"
             id="rect13"
             style="fill:#808080" />
        </g>
        <path
           d="m 3,1049.4 v 1 c 0,1.1 0.8954,2 2,2 h 14 c 1.105,0 2,-0.9 2,-2 v -1 c 0,1.1 -0.895,2 -2,2 H 5 c -1.1046,0 -2,-0.9 -2,-2 z"
           fill="#cb1a1a"
           id="path19"
           style="fill:#aa8800" />
        <g
           transform="matrix(0.70711,0.70711,-0.70711,0.70711,773.22,370.4)"
           id="g39">
          <path
             d="m -63,1003.4 v 11.3 0.7 1 l 2,2 2,-2 v -1 -0.7 -11.3 z"
             fill="#ecf0f1"
             id="path21" />
          <path
             d="m -61,1003.4 v 15 l 2,-2 v -1 -0.7 -11.3 z"
             fill="#bdc3c7"
             id="path23" />
          <rect
             height="11"
             width="4"
             y="1004.4"
             x="-63"
             fill="#30e723"
             id="rect25" />
          <path
             d="m -61,1000.4 c -1.105,0 -2,0.9 -2,2 v 1 h 4 v -1 c 0,-1.1 -0.895,-2 -2,-2 z"
             fill="#562424"
             id="path27" />
          <g
             transform="translate(-7,1)"
             id="g33">
            <path
               d="m -55.406,1016 1.406,1.4 1.406,-1.4 H -54 Z"
               fill="#34495e"
               id="path29" />
            <path
               d="m -54,1016 v 1.4 l 1.406,-1.4 z"
               fill="#2c3e50"
               id="path31" />
          </g>
          <path
             d="m -61,1000.4 c -1.105,0 -2,0.9 -2,2 v 1 h 2 z"
             fill="#cb1a1a"
             id="path35" />
          <rect
             height="11"
             width="2"
             y="1004.4"
             x="-61"
             fill="#00d150"
             id="rect37" />
        </g>
      </g>
    </g>
  </g>
</svg>
