<?xml version="1.0" encoding="UTF-8" standalone="no"?>
<!-- Uploaded to: SVG Repo, www.svgrepo.com, Transformed by: SVG Repo Mixer Tools -->

<svg
   width="24"
   height="24"
   viewBox="0 0 0.72 0.72"
   fill="none"
   version="1.1"
   id="svg14"
   sodipodi:docname="houses.svg"
   inkscape:version="1.2.2 (1:1.2.2+202212051550+b0a8486541)"
   xmlns:inkscape="http://www.inkscape.org/namespaces/inkscape"
   xmlns:sodipodi="http://sodipodi.sourceforge.net/DTD/sodipodi-0.dtd"
   xmlns="http://www.w3.org/2000/svg"
   xmlns:svg="http://www.w3.org/2000/svg">
  <defs
     id="defs18" />
  <sodipodi:namedview
     id="namedview16"
     pagecolor="#505050"
     bordercolor="#ffffff"
     borderopacity="1"
     inkscape:pageshadow="0"
     inkscape:pageopacity="0"
     inkscape:pagecheckerboard="1"
     showgrid="false"
     inkscape:zoom="23.504229"
     inkscape:cx="15.273847"
     inkscape:cy="14.082572"
     inkscape:window-width="1920"
     inkscape:window-height="1043"
     inkscape:window-x="1920"
     inkscape:window-y="0"
     inkscape:window-maximized="1"
     inkscape:current-layer="svg14"
     inkscape:showpageshadow="2"
     inkscape:deskcolor="#505050" />
  <g
     id="g2054"
     transform="matrix(0.02834417,0,0,0.02834417,0.01889921,0.0080002)">
    <g
       id="g1903"
       transform="matrix(0.48489227,0,0,0.48489227,-3.342263,20.093024)">
      <g
         id="g1117"
         transform="matrix(0.66666667,0,0,0.66666667,8.2166064,-35.206913)">
        <path
           fill="#a0041e"
           d="m 9.344,14.702 h -2 a 0.5,0.5 0 0 1 -0.5,-0.5 v -7 a 0.5,0.5 0 0 1 0.5,-0.5 h 2 a 0.5,0.5 0 0 1 0.5,0.5 v 7 a 0.5,0.5 0 0 1 -0.5,0.5 z"
           id="path1087" />
        <path
           fill="#ffe8b6"
           d="M 5,16 18,3 31,16 V 33 H 5 Z"
           id="path1089" />
        <path
           fill="#66757f"
           d="M 31,17 A 0.997,0.997 0 0 1 30.293,16.707 L 18,4.414 5.707,16.707 A 0.99984899,0.99984899 0 1 1 4.293,15.293 l 13,-13 a 0.999,0.999 0 0 1 1.414,0 l 13,13 A 0.999,0.999 0 0 1 31,17 Z"
           id="path1093" />
        <path
           fill="#c1694f"
           d="m 16,26 h 4 v 6 h -4 z"
           id="path1097" />
        <path
           fill="#55acee"
           d="m 11.121721,17 h 3.334923 v 4 h -3.334923 z m 10.421635,0 h 3.334923 v 4 h -3.334923 z"
           id="path1099"
           style="stroke-width:0.913089"
           sodipodi:nodetypes="cccccccccc" />
        <path
           fill="#5c913b"
           d="M 33.5,33.5 A 1.5,1.5 0 0 1 32,35 H 4 a 1.5,1.5 0 0 1 0,-3 h 28 a 1.5,1.5 0 0 1 1.5,1.5 z"
           id="path1101"
           style="fill:#808080" />
      </g>
    </g>
    <g
       id="g1903-5"
       transform="matrix(0.48489227,0,0,0.48489227,7.805008,19.980992)">
      <g
         id="g1117-6"
         transform="matrix(0.66666667,0,0,0.66666667,8.2166064,-35.206913)">
        <path
           fill="#a0041e"
           d="m 9.344,14.702 h -2 a 0.5,0.5 0 0 1 -0.5,-0.5 v -7 a 0.5,0.5 0 0 1 0.5,-0.5 h 2 a 0.5,0.5 0 0 1 0.5,0.5 v 7 a 0.5,0.5 0 0 1 -0.5,0.5 z"
           id="path1087-9" />
        <path
           fill="#ffe8b6"
           d="M 5,16 18,3 31,16 V 33 H 5 Z"
           id="path1089-3" />
        <path
           fill="#66757f"
           d="M 31,17 A 0.997,0.997 0 0 1 30.293,16.707 L 18,4.414 5.707,16.707 A 0.99984899,0.99984899 0 1 1 4.293,15.293 l 13,-13 a 0.999,0.999 0 0 1 1.414,0 l 13,13 A 0.999,0.999 0 0 1 31,17 Z"
           id="path1093-3" />
        <path
           fill="#c1694f"
           d="m 16,26 h 4 v 6 h -4 z"
           id="path1097-9" />
        <path
           fill="#55acee"
           d="m 11.121721,17 h 3.334923 v 4 h -3.334923 z m 10.421635,0 h 3.334923 v 4 h -3.334923 z"
           id="path1099-3"
           style="stroke-width:0.913089"
           sodipodi:nodetypes="cccccccccc" />
        <path
           fill="#5c913b"
           d="M 33.5,33.5 A 1.5,1.5 0 0 1 32,35 H 4 a 1.5,1.5 0 0 1 0,-3 h 28 a 1.5,1.5 0 0 1 1.5,1.5 z"
           id="path1101-3"
           style="fill:#808080" />
      </g>
    </g>
    <g
       id="g1903-3"
       transform="matrix(0.48489227,0,0,0.48489227,2.0353151,27.039062)">
      <g
         id="g1117-1"
         transform="matrix(0.66666667,0,0,0.66666667,8.2166064,-35.206913)">
        <path
           fill="#a0041e"
           d="m 9.344,14.702 h -2 a 0.5,0.5 0 0 1 -0.5,-0.5 v -7 a 0.5,0.5 0 0 1 0.5,-0.5 h 2 a 0.5,0.5 0 0 1 0.5,0.5 v 7 a 0.5,0.5 0 0 1 -0.5,0.5 z"
           id="path1087-3" />
        <path
           fill="#ffe8b6"
           d="M 5,16 18,3 31,16 V 33 H 5 Z"
           id="path1089-8" />
        <path
           fill="#66757f"
           d="M 31,17 A 0.997,0.997 0 0 1 30.293,16.707 L 18,4.414 5.707,16.707 A 0.99984899,0.99984899 0 1 1 4.293,15.293 l 13,-13 a 0.999,0.999 0 0 1 1.414,0 l 13,13 A 0.999,0.999 0 0 1 31,17 Z"
           id="path1093-1" />
        <path
           fill="#c1694f"
           d="m 16,26 h 4 v 6 h -4 z"
           id="path1097-3" />
        <path
           fill="#55acee"
           d="m 11.121721,17 h 3.334923 v 4 h -3.334923 z m 10.421635,0 h 3.334923 v 4 h -3.334923 z"
           id="path1099-0"
           style="stroke-width:0.913089"
           sodipodi:nodetypes="cccccccccc" />
        <path
           fill="#5c913b"
           d="M 33.5,33.5 A 1.5,1.5 0 0 1 32,35 H 4 a 1.5,1.5 0 0 1 0,-3 h 28 a 1.5,1.5 0 0 1 1.5,1.5 z"
           id="path1101-33"
           style="fill:#808080" />
      </g>
    </g>
  </g>
</svg>
