<?xml version="1.0" encoding="UTF-8" standalone="no"?>
<svg
   id="Layer_1"
   style="enable-background:new 0 0 512 512;"
   version="1.1"
   viewBox="0 0 512 512"
   xml:space="preserve"
   sodipodi:docname="shoppingcart_full.svg"
   inkscape:version="1.1.2 (0a00cf5339, 2022-02-04, custom)"
   xmlns:inkscape="http://www.inkscape.org/namespaces/inkscape"
   xmlns:sodipodi="http://sodipodi.sourceforge.net/DTD/sodipodi-0.dtd"
   xmlns="http://www.w3.org/2000/svg"
   xmlns:svg="http://www.w3.org/2000/svg"><defs
     id="defs57" /><sodipodi:namedview
     id="namedview55"
     pagecolor="#505050"
     bordercolor="#ffffff"
     borderopacity="1"
     inkscape:pageshadow="0"
     inkscape:pageopacity="0"
     inkscape:pagecheckerboard="1"
     showgrid="false"
     inkscape:zoom="1.1476675"
     inkscape:cx="175.57351"
     inkscape:cy="131.57121"
     inkscape:window-width="1920"
     inkscape:window-height="1017"
     inkscape:window-x="-1928"
     inkscape:window-y="-8"
     inkscape:window-maximized="1"
     inkscape:current-layer="g1043" /><style
     type="text/css"
     id="style2">
	.st0{fill:#1EF6F6;}
	.st1{fill:#FDDD7B;}
	.st2{fill:#EAF3F2;}
	.st3{fill:#D4FF93;}
	.st4{fill:#FD535F;}
	.st5{stroke:#000000;stroke-width:2;stroke-linecap:round;stroke-linejoin:round;stroke-miterlimit:10;}
	.st6{fill:none;stroke:#000000;stroke-width:2;stroke-linecap:round;stroke-linejoin:round;stroke-miterlimit:10;}
	.st7{fill:#1EF6F6;stroke:#000000;stroke-width:2;stroke-linecap:round;stroke-linejoin:round;stroke-miterlimit:10;}
</style><g
     id="g52"
     transform="matrix(-1,0,0,1,512.00872,0)"><g
       id="g8" /><g
       id="g1043"
       transform="matrix(0.84090394,0,0,0.84090394,40.733646,40.724387)"><rect
         class="cls-7"
         x="-467.75034"
         y="46.44566"
         width="109.18918"
         height="109.18918"
         id="rect24"
         style="fill:#ff2a2a;stroke-width:2.22517;fill-opacity:1"
         transform="scale(-1,1)" /><path
         class="cls-2"
         d="m 358.56116,160.08518 h 109.18918 a 4.4503435,4.4503435 0 0 0 4.45034,-4.45033 V 46.445658 a 4.4503435,4.4503435 0 0 0 -4.45034,-4.450345 H 358.56116 a 4.4503435,4.4503435 0 0 0 -4.45034,4.450345 V 155.63485 a 4.4503435,4.4503435 0 0 0 4.45034,4.45033 z M 463.3,151.1845 H 363.0115 V 50.896002 H 463.3 Z"
         id="path28"
         style="fill:#53676c;stroke-width:2.22517" /><g
         id="g1608"
         transform="matrix(0.62784387,0,0,0.62784387,90.021174,73.835667)"><rect
           class="cls-1"
           x="-366.79889"
           y="-111.25995"
           width="203.27827"
           height="203.27827"
           id="rect8"
           style="fill:#44aa00;stroke-width:3.71624;fill-opacity:1"
           transform="scale(-1,1)" /><path
           class="cls-2"
           d="m 163.48348,99.450793 h 203.27827 a 7.432478,7.432478 0 0 0 7.43248,-7.432478 V -111.25995 a 7.432478,7.432478 0 0 0 -7.43248,-7.43248 H 163.48348 a 7.432478,7.432478 0 0 0 -7.43248,7.43248 V 92.018315 a 7.432478,7.432478 0 0 0 7.43248,7.432478 z M 359.32927,84.585837 H 170.91595 V -103.82748 h 188.41332 z"
           id="path10-19"
           style="fill:#53676c;stroke-width:3.71624" /><rect
           class="cls-5"
           x="-227.77275"
           y="118.74613"
           width="203.27815"
           height="283.25174"
           transform="matrix(-0.70710678,0.70710678,0.70710678,0.70710678,0,0)"
           id="rect18-4"
           style="fill:#2197f3;stroke-width:3.71624;fill-opacity:1" /><path
           class="cls-2"
           d="m 301.57892,274.37417 a 7.432478,7.432478 0 0 0 5.2399,-2.19258 L 450.56294,128.43746 a 7.432478,7.432478 0 0 0 0,-10.51696 L 250.44347,-82.347614 a 7.432478,7.432478 0 0 0 -10.51696,0 L 96.18239,61.396506 a 7.432478,7.432478 0 0 0 0,10.516956 L 296.48767,272.21875 a 7.432478,7.432478 0 0 0 5.09125,2.15542 z M 434.80609,123.19756 301.57892,256.42473 111.79059,66.636406 245.01776,-66.665094 Z"
           id="path22"
           style="fill:#53676c;stroke-width:3.71624" /></g><rect
         class="cls-3"
         x="-400.83951"
         y="76.721779"
         width="96.994736"
         height="96.994736"
         id="rect12"
         style="fill:#ffe76e;stroke-width:1.97666"
         transform="scale(-1,1)" /><path
         class="cls-2"
         d="m 303.84478,177.66983 h 96.99473 a 3.9533211,3.9533211 0 0 0 3.95332,-3.95332 V 76.721777 a 3.9533211,3.9533211 0 0 0 -3.95332,-3.95332 h -96.99473 a 3.9533211,3.9533211 0 0 0 -3.95332,3.95332 v 96.994733 a 3.9533211,3.9533211 0 0 0 3.95332,3.95332 z m 93.04141,-7.90664 h -89.0881 V 80.675097 h 89.0881 z"
         id="path16"
         style="fill:#53676c;stroke-width:1.97666" /><g
         id="g1372"
         transform="translate(0,-3.1117157)"><path
           class="st1"
           d="M 454.5,342.05 174.63,341.09 131.72,122.8 h 351.95 c 14.09,0 23.58,14.44 17.98,27.37 z"
           id="path4"
           style="fill:#afafe9" /><path
           d="m 454.49,349.77 c -0.01,0 -0.02,0 -0.03,0 L 174.6,348.8 c -3.68,-0.01 -6.84,-2.62 -7.55,-6.24 L 124.14,124.27 c -0.45,-2.27 0.15,-4.61 1.61,-6.4 1.47,-1.78 3.66,-2.82 5.97,-2.82 h 351.95 c 9.23,0 17.76,4.6 22.83,12.32 4.94,7.52 5.86,16.89 2.52,25.2 L 462,343.88 c -0.85,3.47 -3.95,5.89 -7.51,5.89 z m -273.5,-16.39 267.45,0.92 45.71,-185.98 c 0.1,-0.42 0.23,-0.83 0.41,-1.22 1.61,-3.74 1.26,-7.83 -0.97,-11.23 -2.23,-3.4 -5.85,-5.35 -9.92,-5.35 H 141.12 Z"
           id="path6"
           style="fill:#1c2224" /><g
           id="g12"
           style="fill:#1c2224"><path
             d="m 445.80144,395.93345 h -261.67 c -3.76,0 -6.97,-2.7 -7.61,-6.4 L 167.02,342.41 c -0.73,-4.2 2.08,-8.21 6.29,-8.94 4.22,-0.7 8.2,2.09 8.93,6.29 l 8.38144,40.72345 h 255.17 c 4.27,0 7.73,3.46 7.73,7.73 0.01,4.26 -3.45,7.72 -7.72,7.72 z"
             id="path10"
             sodipodi:nodetypes="sscccccscs"
             style="fill:#1c2224" /></g><g
           id="g16"
           transform="translate(0,-15.024691)"
           style="fill:#1c2224"><path
             d="m 206.28,449.15 c -4.27,0 -7.73,-3.46 -7.73,-7.73 V 413.6 c 0,-4.27 3.46,-7.73 7.73,-7.73 4.27,0 7.73,3.46 7.73,7.73 v 27.83 c 0,4.26 -3.45,7.72 -7.73,7.72 z"
             id="path14"
             style="fill:#1c2224" /></g><g
           id="g22"
           transform="translate(0,-15.024691)"
           style="fill:#1c2224"><circle
             class="st0"
             cx="206.00999"
             cy="464.89999"
             r="23.48"
             id="circle18"
             style="fill:#1c2224" /><path
             d="m 206,496.11 c -17.21,0 -31.2,-14 -31.2,-31.2 0,-17.21 14,-31.21 31.2,-31.21 17.21,0 31.21,14 31.21,31.21 0.01,17.2 -13.99,31.2 -31.21,31.2 z m 0,-46.96 c -8.69,0 -15.75,7.07 -15.75,15.75 0,8.68 7.06,15.75 15.75,15.75 8.69,0 15.76,-7.06 15.76,-15.75 0,-8.69 -7.07,-15.75 -15.76,-15.75 z"
             id="path20"
             style="fill:#1c2224" /></g><g
           id="g26"
           transform="translate(0,-15.024691)"
           style="fill:#1c2224"><path
             d="m 420.59,449.15 c -4.27,0 -7.73,-3.46 -7.73,-7.73 V 413.6 c 0,-4.27 3.46,-7.73 7.73,-7.73 4.27,0 7.73,3.46 7.73,7.73 v 27.83 c -0.01,4.26 -3.46,7.72 -7.73,7.72 z"
             id="path24"
             style="fill:#1c2224" /></g><g
           id="g32"
           transform="translate(0,-15.024691)"
           style="fill:#1c2224"><circle
             class="st0"
             cx="420.31"
             cy="464.89999"
             r="23.48"
             id="circle28"
             style="fill:#1c2224" /><path
             d="m 420.31,496.11 c -17.21,0 -31.2,-14 -31.2,-31.2 0,-17.21 14,-31.21 31.2,-31.21 17.21,0 31.21,14 31.21,31.21 0,17.2 -14,31.2 -31.21,31.2 z m 0,-46.96 c -8.69,0 -15.75,7.07 -15.75,15.75 0,8.68 7.06,15.75 15.75,15.75 8.69,0 15.76,-7.06 15.76,-15.75 0,-8.69 -7.08,-15.75 -15.76,-15.75 z"
             id="path30"
             style="fill:#1c2224" /></g><g
           id="g36"
           style="fill:#1c2224"><path
             d="m 131.71,130.52 c -3.45,0 -6.59,-2.32 -7.48,-5.82 L 111.79059,69.748122 H 90.820592 c -4.27,0 -7.73,-3.46 -7.73,-7.73 0,-4.27 3.46,-7.73 7.73,-7.73 h 26.979998 c 3.53,0 6.62,2.4 7.49,5.82 L 139.21,120.88 c 1.06,4.14 -1.44,8.34 -5.58,9.39 -0.64,0.17 -1.28,0.25 -1.92,0.25 z"
             id="path34"
             sodipodi:nodetypes="sccsssscccs"
             style="fill:#1c2224" /></g><g
           id="g40"
           style="fill:#1c2224"><path
             d="m 314.2,348.59 c -4.23,0 -7.68,-3.4 -7.73,-7.64 l -2.44,-218.08 c -0.05,-4.27 3.37,-7.77 7.64,-7.81 0.02,0 0.05,0 0.08,0 4.23,0 7.68,3.4 7.73,7.64 l 2.44,218.08 c 0.05,4.27 -3.37,7.77 -7.64,7.81 -0.02,0 -0.05,0 -0.08,0 z"
             id="path38"
             style="fill:#1c2224" /></g><g
           id="g44"
           style="fill:#1c2224"><path
             d="M 480.43,237.81 H 152.8 c -4.27,0 -7.73,-3.46 -7.73,-7.73 0,-4.27 3.46,-7.73 7.73,-7.73 h 327.62 c 4.27,0 7.73,3.46 7.73,7.73 0.01,4.27 -3.45,7.73 -7.72,7.73 z"
             id="path42"
             style="fill:#1c2224" /></g><g
           id="g50"
           transform="translate(0,21.248122)"
           style="fill:#1c2224"><path
             class="st3"
             d="m 25.88,23.62 c -9.47,0 -17.14,7.68 -17.14,17.14 0,9.46 7.68,17.14 17.14,17.14 H 83.87 V 23.62 Z"
             id="path46"
             style="fill:#1c2224" /><path
             d="M 83.86,65.64 H 25.88 C 12.17,65.64 1.01,54.48 1.01,40.77 1.01,27.06 12.17,15.9 25.88,15.9 h 57.98 c 4.27,0 7.73,3.46 7.73,7.73 v 34.29 c 0,4.26 -3.46,7.72 -7.73,7.72 z M 25.88,31.35 c -5.19,0 -9.42,4.23 -9.42,9.42 0,5.19 4.23,9.42 9.42,9.42 H 76.14 V 31.35 Z"
             id="path48"
             style="fill:#1c2224" /></g></g></g></g></svg>
